<div class="col-xs-12 col-sm-12 col-md-6 col-lg-4 food-item">
                                    <div class="food-item-wrap">
                                        <div class="figure-wrap bg-image" data-image-src="images/food2.jpg">
                                            <div class="distance"><i class="fa fa-pin"></i>1240m</div>
                                            <div class="rating pull-left"> <i class="fa fa-star"></i> <i class="fa fa-star"></i> <i class="fa fa-star"></i> <i class="fa fa-star"></i> <i class="fa fa-star-o"></i> </div>
                                            <div class="review pull-right"><a href="#">198 reviews</a> </div>
                                        </div>
                                        <div class="content">
                                            <h5><a href="#">RICE</a></h5>
                                           
                                            <div class="price-btn-block"> <span class="price">LKR 180</span> <a href="profile.html" class="btn theme-btn-dash pull-right">Order Now</a> </div>
                                        </div>
                                        <div class="restaurant-block">
                                            <div class="left">
                                                <a class="pull-left" href="#"> <img src="images/logo2.png" alt="Restaurant logo"> </a>
                                                <div class="pull-left right-text"> <a href="#">Sanmugam</a> <span>town</span> </div>
                                            </div>
                                        </div>
                                    </div>
                                </div>
                                <!-- Each popular food item starts -->
                                <!-- Each popular food item starts -->
                                <div class="col-xs-12 col-sm-12 col-md-6 col-lg-4 food-item">
                                    <div class="food-item-wrap">
                                        <div class="figure-wrap bg-image" data-image-src="images/food3.jpg">
                                            <div class="distance"><i class="fa fa-pin"></i>1240m</div>
                                            <div class="rating pull-left"> <i class="fa fa-star"></i> <i class="fa fa-star"></i> <i class="fa fa-star"></i> <i class="fa fa-star"></i> <i class="fa fa-star-o"></i> </div>
                                            <div class="review pull-right"><a href="#">198 reviews</a> </div>
                                        </div>
                                        <div class="content">
                                            <h5><a href="#">RICE</a></h5>
                                            
                                            <div class="price-btn-block"> <span class="price">LKR 200</span> <a href="profile.html" class="btn theme-btn-dash pull-right">Order Now</a> </div>
                                        </div>
                                        <div class="restaurant-block">
                                            <div class="left">
                                                <a class="pull-left" href="#"> <img src="images/logo3.png" alt="Restaurant logo"> </a>
                                                <div class="pull-left right-text"> <a href="#">rolex</a> <span>kopay</span> </div>
                                            </div>
                                        </div>
                                    </div>
                                </div>
                                <!-- Each popular food item starts -->
                                <div class="col-xs-12 col-sm-12 col-md-6 col-lg-4 food-item">
                                    <div class="food-item-wrap">
                                        <div class="figure-wrap bg-image" data-image-src="images/food1.jpg">
                                            <div class="distance"><i class="fa fa-pin"></i>1240m</div>
                                            <div class="rating pull-left"> <i class="fa fa-star"></i> <i class="fa fa-star"></i> <i class="fa fa-star"></i> <i class="fa fa-star"></i> <i class="fa fa-star-o"></i> </div>
                                            <div class="review pull-right"><a href="#">198 reviews</a> </div>
                                        </div>
                                        <div class="content">
                                            <h5><a href="#">thosai</a></h5>
                                           
                                            <div class="price-btn-block"> <span class="price">LKR 120</span> <a href="profile.html" class="btn theme-btn-dash pull-right">Order Now</a> </div>
                                        </div>
                                        <div class="restaurant-block">
                                            <div class="left">
                                                <a class="pull-left" href="#"> <img src="images/logo3.png" alt="Restaurant logo"> </a>
                                                <div class="pull-left right-text"> <a href="#">Cafj</a> <span>town</span> </div>
                                            </div>
                                        </div>
                                    </div>
                                </div>
                                <!-- Each popular food item starts -->
                                <div class="col-xs-12 col-sm-12 col-md-6 col-lg-4 food-item">
                                    <div class="food-item-wrap">
                                        <div class="figure-wrap bg-image" data-image-src="images/food1.jpg">
                                            <div class="distance"><i class="fa fa-pin"></i>1240m</div>
                                            <div class="rating pull-left"> <i class="fa fa-star"></i> <i class="fa fa-star"></i> <i class="fa fa-star"></i> <i class="fa fa-star"></i> <i class="fa fa-star-o"></i> </div>
                                            <div class="review pull-right"><a href="#">198 reviews</a> </div>
                                        </div>
                                        <div class="content">
                                            <h5><a href="#">kottu</a></h5>
                                            
                                            <div class="price-btn-block"> <span class="price">LKR 150</span> <a href="profile.html" class="btn theme-btn-dash pull-right">Order Now</a> </div>
                                        </div>
                                        <div class="restaurant-block">
                                            <div class="left">
                                                <a class="pull-left" href="#"> <img src="images/logo3.png" alt="Restaurant logo"> </a>
                                                <div class="pull-left right-text"> <a href="#">Omex</a> <span>towm</span> </div>
                                            </div>
                                        </div>
                                    </div>
                                </div>
                                <!-- Each popular food item starts -->
                                <div class="col-xs-12 col-sm-12 col-md-6 col-lg-4 food-item">
                                    <div class="food-item-wrap">
                                        <div class="figure-wrap bg-image" data-image-src="images/food1.jpg">
                                            <div class="distance"><i class="fa fa-pin"></i>1240m</div>
                                            <div class="rating pull-left"> <i class="fa fa-star"></i> <i class="fa fa-star"></i> <i class="fa fa-star"></i> <i class="fa fa-star"></i> <i class="fa fa-star-o"></i> </div>
                                            <div class="review pull-right"><a href="#">198 reviews</a> </div>
                                        </div>
                                        <div class="content">
                                            <h5><a href="#">Egg rice</a></h5>
                                           
                                            <div class="price-btn-block"> <span class="price">LKR 130</span> <a href="profile.html" class="btn theme-btn-dash pull-right">Order Now</a> </div>
                                        </div>
                                        <div class="restaurant-block">
                                            <div class="left">
                                                <a class="pull-left" href="#"> <img src="images/logo3.png" alt="Restaurant logo"> </a>
                                                <div class="pull-left right-text"> <a href="#">Golden Star</a> <span>station road</span> </div>
                                            </div>
                                        </div>
                                    </div>
                                </div>